POSITIF

 128  64  32  16   8   4   2   1
   0   0   0   0   0   0   0   0     0
   1   0   0   0   0   0   0   0   128
   1   1   0   0   0   0   0   0   192
   1   1   1   1   1   1   1   1   255


NEGATIF

-128  64  32  16   8   4   2   1
   0   0   0   0   0   0   0   0     0
   1   0   0   0   0   0   0   0  -128
   1   1   0   0   0   0   0   0   -64
   1   1   1   1   1   1   1   1    -1
